…
``` r
library("ItemResponseTrees")
library("dplyr")
```

``` r
data("jackson")
set.seed(1432)

df1 <- select(jackson, paste0("C", 1:7)) %>% 
    sample_n(250)
df1
#> # A tibble: 250 x 7
#>       C1    C2    C3    C4    C5    C6    C7
#>    <int> <dbl> <int> <dbl> <int> <dbl> <int>
#>  1     4     5     5     4     4     5     5
#>  2     3     3     3     5     3     2     3
#>  3     3     1     5     2     3     2     5
#>  4     5     2     4     4     5     4     5
#>  5     4     4     5     4     2     4     4
#>  6     4     3     4     4     2     3     5
#>  7     5     2     4     5     2     3     4
#>  8     3     3     4     2     2     3     3
#>  9     3     3     3     2     4     2     3
#> 10     5     5     5     5     4     5     5
#> # ... with 240 more rows
```
…
### Parameter Estimates

The parameter estimates are obtained via `tidy()`. For the IR-tree
model, this returns a tibble with 54 rows (pertaining to the fixed and
estimated parameters). Below, the seven loading/discrimination
parameters `t_*.a1` pertaining to parameter *t* are shown. The loadings
pertaining to parameter *e* (`e_*.a2`) and *m* (`m_*.a3`) were fixed to
one and thus no standard error is returned for these. The latent
correlations are shown below as well, and these show the typical pattern
of a negative correlation between *e* and *m*.

``` r
tidy(fit1, par_type = "difficulty")
#> # A tibble: 72 x 4
#>    effect term     estimate std.error
#>    <chr>  <chr>       <dbl>     <dbl>
#>  1 fixed  t_E1.a1      1.94     0.231
#>  2 fixed  t_E2.a1      2.08     0.203
#>  3 fixed  t_E3.a1      2.14     0.253
#>  4 fixed  t_E4.a1      2.27     0.216
#>  5 fixed  t_E5.a1      2.39     0.290
#>  6 fixed  t_E6.a1      2.43     0.419
#>  7 fixed  t_E7.a1      2.02     0.194
#>  8 fixed  t_E8.a1      1.62     0.185
#>  9 fixed  t_E9.a1      1.55     0.160
#> 10 fixed  t_E10.a1     2.28     0.274
#> # ... with 62 more rows
…
### Factor scores

The factor scores or person parameter estimates are obtained via
`augment()`. This returns a tibble comprised of the data set and the
factor scores (plus respective standard errors) for the three dimensions
*t* (F1), *e* (F2), and *m* (F3).\[1\]

The correlation of the scores for the target trait (conscientiousness in
this case) between the IR-tree model and the GRM indicates that the
models differ in this respect even though not drastically.

``` r
augment(fit1)
#> # A tibble: 500 x 16
#>       E1    E2    E3    E4    E5    E6    E7    E8    E9   E10 .fittedF1
#>    <int> <dbl> <int> <dbl> <int> <dbl> <int> <dbl> <int> <dbl>     <dbl>
#>  1     3     2     3     3     3     3     3     4     4     4    0.673 
#>  2     5     4     4     5     4     5     5     4     5     4    1.58  
#>  3     1     2     2     1     2     1     1     1     1     1   -1.68  
#>  4     4     4     4     4     4     4     4     3     4     4    1.58  
#>  5     3     3     3     3     3     4     3     2     4     2    0.0203
#>  6     2     1     2     1     2     1     2     1     2     2   -1.63  
#>  7     4     4     4     4     4     4     4     4     4     4    1.68  
#>  8     3     4     4     2     4     4     4     3     4     3    0.622 
#>  9     2     5     5     4     2     4     3     4     4     4    0.640 
#> 10     2     2     3     1     4     2     2     1     1     1   -0.994 
#> # ... with 490 more rows, and 5 more variables: .fittedF2 <dbl>,
#> #   .fittedF3 <dbl>, .se.fitF1 <dbl>, .se.fitF2 <dbl>, .se.fitF3 <dbl>
…
