Getting started with IR-trees
…
install.packages("remotes")
remotes::install_github("hplieninger/ItemResponseTrees", upgrade = "always")

Example Data

Herein, an illustrative example will be shown using a popular IR-tree model for 5-point items (Böckenholt, 2012). The model is applied to a Big Five data set from Jackson (2012), more precisely to nine conscientiousness items.

library("ItemResponseTrees")

data("jackson")

set.seed(9701)
df1 <- jackson[sample(nrow(jackson), 321), paste0("E", 1:9)]
df1
#> # A tibble: 321 x 9
#>       E1    E2    E3    E4    E5    E6    E7    E8    E9
#>    <int> <dbl> <int> <dbl> <int> <dbl> <int> <dbl> <int>
#>  1     3     3     3     3     3     3     2     3     3
#>  2     3     5     3     3     5     5     5     1     5
#>  3     4     4     3     3     4     3     5     4     2
#>  4     4     3     5     4     3     4     4     3     4
#>  5     3     1     4     1     2     4     2     3     4
#>  6     1     2     3     2     2     2     2     2     2
#>  7     4     5     4     3     4     4     4     3     3
#>  8     3     5     3     4     4     5     3     5     4
#>  9     2     2     3     4     2     1     2     2     2
#> 10     2     4     4     2     3     4     2     3     3
#> # ... with 311 more rows
…
Parameter Estimates

The parameter estimates are obtained via tidy(). For the IR-tree model, this returns a tibble with 66 rows (pertaining to the fixed and estimated parameters). Below, the nine threshold/difficulty parameters t_E*.d pertaining to parameter t are shown plus the threshold of pseudoitem e_E1.

The latent variances, covariances, and correlations are shown below as well, and these show the typical pattern of a negative correlation between e and m.1

tidy(fit1, par_type = "difficulty")
#> # A tibble: 66 x 5
#>    parameter component term   estimate std.error
#>    <chr>     <chr>     <chr>     <dbl>     <dbl>
#>  1 Threshold <NA>      t_E1.d    1.08      0.574
#>  2 Threshold <NA>      t_E2.d   -1.07      0.652
#>  3 Threshold <NA>      t_E3.d   -1.34      0.383
#>  4 Threshold <NA>      t_E4.d   -0.208     0.563
#>  5 Threshold <NA>      t_E5.d   -1.81      0.522
#>  6 Threshold <NA>      t_E6.d   -2.12      0.632
#>  7 Threshold <NA>      t_E7.d    0.622     0.540
#>  8 Threshold <NA>      t_E8.d    0.636     0.448
#>  9 Threshold <NA>      t_E9.d   -0.178     0.351
#> 10 Threshold <NA>      e_E1.d    0.744     0.189
#> # ... with 56 more rows
…
Factor scores

The factor scores or person parameter estimates are obtained via augment(). This returns a tibble comprised of the data set and the factor scores (plus respective standard errors) for the three dimensions t (F1), e (F2), and m (F3).

The correlation of the scores for the target trait (extraversion in this case) between the IR-tree model and the GRM indicates that the models differ in this respect even though not drastically.

augment(fit1)
#> # A tibble: 321 x 15
#>       E1    E2    E3    E4    E5    E6    E7    E8    E9 .fittedF1 .fittedF2
#>    <int> <dbl> <int> <dbl> <int> <dbl> <int> <dbl> <int>     <dbl>     <dbl>
#>  1     3     3     3     3     3     3     2     3     3   -0.743     -2.82 
#>  2     3     5     3     3     5     5     5     1     5    0.560      1.62 
#>  3     4     4     3     3     4     3     5     4     2    0.809     -0.812
#>  4     4     3     5     4     3     4     4     3     4    1.16      -0.706
#>  5     3     1     4     1     2     4     2     3     4   -0.634     -0.291
#>  6     1     2     3     2     2     2     2     2     2   -1.42      -0.807
#>  7     4     5     4     3     4     4     4     3     3    1.10      -0.808
#>  8     3     5     3     4     4     5     3     5     4    1.13       0.237
#>  9     2     2     3     4     2     1     2     2     2   -0.905     -0.767
#> 10     2     4     4     2     3     4     2     3     3   -0.0666    -1.51 
#> # ... with 311 more rows, and 4 more variables: .fittedF3 <dbl>,
#> #   .se.fitF1 <dbl>, .se.fitF2 <dbl>, .se.fitF3 <dbl>
…
